EESchema Schematic File Version 4
EELAYER 30 0
EELAYER END
$Descr A4 11693 8268
encoding utf-8
Sheet 1 1
Title ""
Date ""
Rev ""
Comp ""
Comment1 ""
Comment2 ""
Comment3 ""
Comment4 ""
$EndDescr
$Comp
L power:GND #PWR04
U 1 1 605CC40D
P 2600 5950
F 0 "#PWR04" H 2600 5700 50  0001 C CNN
F 1 "GND" H 2605 5777 50  0000 C CNN
F 2 "" H 2600 5950 50  0001 C CNN
F 3 "" H 2600 5950 50  0001 C CNN
	1    2600 5950
	1    0    0    -1  
$EndComp
$Comp
L power:+5V #PWR03
U 1 1 605CCBE2
P 2600 3650
F 0 "#PWR03" H 2600 3500 50  0001 C CNN
F 1 "+5V" H 2615 3823 50  0000 C CNN
F 2 "" H 2600 3650 50  0001 C CNN
F 3 "" H 2600 3650 50  0001 C CNN
	1    2600 3650
	1    0    0    -1  
$EndComp
$Comp
L Connector:Conn_01x03_Male J1
U 1 1 605D03B6
P 950 2750
F 0 "J1" H 1058 3031 50  0000 C CNN
F 1 "Sensor" H 1058 2940 50  0000 C CNN
F 2 "Connector_PinHeader_1.27mm:PinHeader_1x03_P1.27mm_Vertical" H 950 2750 50  0001 C CNN
F 3 "~" H 950 2750 50  0001 C CNN
	1    950  2750
	1    0    0    -1  
$EndComp
$Comp
L Connector:Conn_01x03_Male J2
U 1 1 605D542E
P 950 3300
F 0 "J2" H 1058 3581 50  0000 C CNN
F 1 "Sensor" H 1058 3490 50  0000 C CNN
F 2 "Connector_PinHeader_1.27mm:PinHeader_1x03_P1.27mm_Vertical" H 950 3300 50  0001 C CNN
F 3 "~" H 950 3300 50  0001 C CNN
	1    950  3300
	1    0    0    -1  
$EndComp
$Comp
L Motor:Fan_Tacho_PWM M1
U 1 1 605D65FB
P 9800 4350
F 0 "M1" H 9958 4446 50  0000 L CNN
F 1 "Fan_Tacho_PWM" H 9958 4355 50  0000 L CNN
F 2 "Connector:FanPinHeader_1x04_P2.54mm_Vertical" H 9800 4360 50  0001 C CNN
F 3 "http://www.formfactors.org/developer%5Cspecs%5Crev1_2_public.pdf" H 9800 4360 50  0001 C CNN
	1    9800 4350
	1    0    0    -1  
$EndComp
$Comp
L Transistor_FET:BSS83P Q2
U 1 1 605D9CED
P 9700 3550
F 0 "Q2" H 9905 3504 50  0000 L CNN
F 1 "PMV100EPAR" H 9905 3595 50  0000 L CNN
F 2 "Package_TO_SOT_SMD:SOT-23" H 9900 3475 50  0001 L CIN
F 3 "https://www.mouser.com/datasheet/2/916/PMV100EPA-1839898.pdf" H 9700 3550 50  0001 L CNN
F 4 "771-PMV100EPAR" H 9700 3550 50  0001 C CNN "Mouser Part Number"
	1    9700 3550
	1    0    0    1   
$EndComp
$Comp
L power:VDC #PWR022
U 1 1 605DD899
P 9800 2250
F 0 "#PWR022" H 9800 2150 50  0001 C CNN
F 1 "VDC" H 9800 2525 50  0000 C CNN
F 2 "" H 9800 2250 50  0001 C CNN
F 3 "" H 9800 2250 50  0001 C CNN
	1    9800 2250
	1    0    0    -1  
$EndComp
$Comp
L power:+5V #PWR018
U 1 1 605E0775
P 9350 2200
F 0 "#PWR018" H 9350 2050 50  0001 C CNN
F 1 "+5V" H 9365 2373 50  0000 C CNN
F 2 "" H 9350 2200 50  0001 C CNN
F 3 "" H 9350 2200 50  0001 C CNN
	1    9350 2200
	1    0    0    -1  
$EndComp
Wire Wire Line
	9800 4050 9800 3750
NoConn ~ 9500 4250
$Comp
L Device:R R13
U 1 1 605E5F94
P 8750 3850
F 0 "R13" H 8680 3804 50  0000 R CNN
F 1 "3K3" H 8680 3895 50  0000 R CNN
F 2 "Resistor_SMD:R_0603_1608Metric" V 8680 3850 50  0001 C CNN
F 3 "~" H 8750 3850 50  0001 C CNN
	1    8750 3850
	-1   0    0    1   
$EndComp
$Comp
L Diode:BZX84Cxx D5
U 1 1 605E77BB
P 9250 3250
F 0 "D5" V 9204 3329 50  0000 L CNN
F 1 "BZX84-C10" V 9295 3329 50  0000 L CNN
F 2 "Diode_SMD:D_SOT-23_ANK" H 9250 3250 50  0001 C CNN
F 3 "https://www.mouser.com/datasheet/2/916/BZX84_SER-1319896.pdf" H 9250 3250 50  0001 C CNN
F 4 "771-BZX84-C10-T/R" H 9250 3250 50  0001 C CNN "Mouser Part Number"
	1    9250 3250
	0    1    1    0   
$EndComp
$Comp
L Device:R R11
U 1 1 605EAF3C
P 7650 3150
F 0 "R11" V 7857 3150 50  0000 C CNN
F 1 "330R" V 7766 3150 50  0000 C CNN
F 2 "Resistor_SMD:R_0603_1608Metric" V 7580 3150 50  0001 C CNN
F 3 "~" H 7650 3150 50  0001 C CNN
	1    7650 3150
	0    -1   -1   0   
$EndComp
$Comp
L power:GND #PWR019
U 1 1 605ECD1C
P 9800 4750
F 0 "#PWR019" H 9800 4500 50  0001 C CNN
F 1 "GND" H 9805 4577 50  0000 C CNN
F 2 "" H 9800 4750 50  0001 C CNN
F 3 "" H 9800 4750 50  0001 C CNN
	1    9800 4750
	1    0    0    -1  
$EndComp
Wire Wire Line
	9800 4750 9800 4550
Wire Wire Line
	8750 3700 8750 3550
Wire Wire Line
	8750 3000 9250 3000
Wire Wire Line
	9800 3000 9800 3350
Wire Wire Line
	9250 3100 9250 3000
Connection ~ 9250 3000
Wire Wire Line
	9250 3000 9350 3000
$Comp
L power:GND #PWR017
U 1 1 605FB8E4
P 8750 4250
F 0 "#PWR017" H 8750 4000 50  0001 C CNN
F 1 "GND" H 8755 4077 50  0000 C CNN
F 2 "" H 8750 4250 50  0001 C CNN
F 3 "" H 8750 4250 50  0001 C CNN
	1    8750 4250
	1    0    0    -1  
$EndComp
$Comp
L Device:R R2
U 1 1 6060649D
P 4300 3550
F 0 "R2" H 4230 3504 50  0000 R CNN
F 1 "4K7" H 4230 3595 50  0000 R CNN
F 2 "Resistor_SMD:R_0603_1608Metric" V 4230 3550 50  0001 C CNN
F 3 "~" H 4300 3550 50  0001 C CNN
	1    4300 3550
	-1   0    0    1   
$EndComp
$Comp
L Device:R R3
U 1 1 60606F73
P 2550 1750
F 0 "R3" H 2480 1704 50  0000 R CNN
F 1 "100K" H 2480 1795 50  0000 R CNN
F 2 "Resistor_SMD:R_0603_1608Metric" V 2480 1750 50  0001 C CNN
F 3 "~" H 2550 1750 50  0001 C CNN
	1    2550 1750
	-1   0    0    1   
$EndComp
Wire Wire Line
	2550 1600 2550 1250
Wire Wire Line
	2550 1250 2100 1250
Connection ~ 2100 1250
Wire Wire Line
	1150 2750 2100 2750
Wire Wire Line
	1150 3300 2100 3300
Wire Wire Line
	2100 3300 2100 2750
$Comp
L power:GND #PWR01
U 1 1 6061217C
P 1350 4100
F 0 "#PWR01" H 1350 3850 50  0001 C CNN
F 1 "GND" H 1355 3927 50  0000 C CNN
F 2 "" H 1350 4100 50  0001 C CNN
F 3 "" H 1350 4100 50  0001 C CNN
	1    1350 4100
	1    0    0    -1  
$EndComp
Wire Wire Line
	1150 2850 1350 2850
Wire Wire Line
	1350 2850 1350 3400
Wire Wire Line
	1150 3400 1350 3400
Connection ~ 1350 3400
Wire Wire Line
	1350 3400 1350 3850
$Comp
L Device:R R1
U 1 1 60617575
P 1650 1750
F 0 "R1" H 1580 1704 50  0000 R CNN
F 1 "100R" H 1580 1795 50  0000 R CNN
F 2 "Resistor_SMD:R_0603_1608Metric" V 1580 1750 50  0001 C CNN
F 3 "~" H 1650 1750 50  0001 C CNN
	1    1650 1750
	-1   0    0    1   
$EndComp
$Comp
L Device:C C1
U 1 1 6061813D
P 1650 3600
F 0 "C1" H 1765 3646 50  0000 L CNN
F 1 "1uF" H 1765 3555 50  0000 L CNN
F 2 "Capacitor_SMD:C_0603_1608Metric" H 1688 3450 50  0001 C CNN
F 3 "https://www.mouser.com/datasheet/2/585/MLCC-1837944.pdf" H 1650 3600 50  0001 C CNN
F 4 "187-CL03A105MQ3CSNC" H 1650 3600 50  0001 C CNN "Mouser Part Number"
	1    1650 3600
	1    0    0    -1  
$EndComp
Wire Wire Line
	2100 1250 1650 1250
Wire Wire Line
	1650 1250 1650 1600
Wire Wire Line
	1650 1900 1650 2650
Wire Wire Line
	1650 2650 1150 2650
Wire Wire Line
	1150 3200 1650 3200
Wire Wire Line
	1650 3200 1650 3450
Wire Wire Line
	1650 2650 1650 3200
Connection ~ 1650 2650
Connection ~ 1650 3200
Wire Wire Line
	1650 3750 1650 3850
Wire Wire Line
	1650 3850 1350 3850
Connection ~ 1350 3850
Wire Wire Line
	1350 3850 1350 4100
$Comp
L Device:R R5
U 1 1 606229CE
P 1000 5900
F 0 "R5" H 930 5854 50  0000 R CNN
F 1 "330R" H 930 5945 50  0000 R CNN
F 2 "Resistor_SMD:R_0603_1608Metric" V 930 5900 50  0001 C CNN
F 3 "~" H 1000 5900 50  0001 C CNN
	1    1000 5900
	-1   0    0    1   
$EndComp
$Comp
L Device:LED D1
U 1 1 60640539
P 1000 6550
F 0 "D1" V 1039 6433 50  0000 R CNN
F 1 "Status" V 948 6433 50  0000 R CNN
F 2 "LED_SMD:LED_1206_3216Metric" H 1000 6550 50  0001 C CNN
F 3 "~" H 1000 6550 50  0001 C CNN
	1    1000 6550
	0    -1   -1   0   
$EndComp
$Comp
L Device:R R6
U 1 1 606430A7
P 1400 5900
F 0 "R6" H 1330 5854 50  0000 R CNN
F 1 "330R" H 1330 5945 50  0000 R CNN
F 2 "Resistor_SMD:R_0603_1608Metric" V 1330 5900 50  0001 C CNN
F 3 "~" H 1400 5900 50  0001 C CNN
	1    1400 5900
	-1   0    0    1   
$EndComp
$Comp
L Device:LED D2
U 1 1 6064349E
P 1400 6550
F 0 "D2" V 1439 6433 50  0000 R CNN
F 1 "Fan" V 1348 6433 50  0000 R CNN
F 2 "LED_SMD:LED_1206_3216Metric" H 1400 6550 50  0001 C CNN
F 3 "~" H 1400 6550 50  0001 C CNN
	1    1400 6550
	0    -1   -1   0   
$EndComp
Wire Wire Line
	1400 6400 1400 6050
Wire Wire Line
	1000 6400 1000 6050
$Comp
L power:GND #PWR010
U 1 1 60649DC7
P 1000 6950
F 0 "#PWR010" H 1000 6700 50  0001 C CNN
F 1 "GND" H 1005 6777 50  0000 C CNN
F 2 "" H 1000 6950 50  0001 C CNN
F 3 "" H 1000 6950 50  0001 C CNN
	1    1000 6950
	1    0    0    -1  
$EndComp
Wire Wire Line
	9500 3550 9250 3550
Wire Wire Line
	9250 3400 9250 3550
Connection ~ 9250 3550
Wire Wire Line
	9250 3550 8750 3550
Wire Wire Line
	2550 2750 2100 2750
Wire Wire Line
	2550 1900 2550 2750
Connection ~ 2100 2750
$Comp
L power:+5V #PWR02
U 1 1 60673586
P 2100 1000
F 0 "#PWR02" H 2100 850 50  0001 C CNN
F 1 "+5V" H 2115 1173 50  0000 C CNN
F 2 "" H 2100 1000 50  0001 C CNN
F 3 "" H 2100 1000 50  0001 C CNN
	1    2100 1000
	1    0    0    -1  
$EndComp
$Comp
L power:GND #PWR012
U 1 1 60675B9E
P 1400 6950
F 0 "#PWR012" H 1400 6700 50  0001 C CNN
F 1 "GND" H 1405 6777 50  0000 C CNN
F 2 "" H 1400 6950 50  0001 C CNN
F 3 "" H 1400 6950 50  0001 C CNN
	1    1400 6950
	1    0    0    -1  
$EndComp
Wire Wire Line
	1400 6950 1400 6700
Wire Wire Line
	1000 6950 1000 6700
$Comp
L power:+5V #PWR05
U 1 1 606DECD5
P 3100 6600
F 0 "#PWR05" H 3100 6450 50  0001 C CNN
F 1 "+5V" H 3115 6773 50  0000 C CNN
F 2 "" H 3100 6600 50  0001 C CNN
F 3 "" H 3100 6600 50  0001 C CNN
	1    3100 6600
	1    0    0    -1  
$EndComp
$Comp
L power:GND #PWR06
U 1 1 606DFA4C
P 3100 7250
F 0 "#PWR06" H 3100 7000 50  0001 C CNN
F 1 "GND" H 3105 7077 50  0000 C CNN
F 2 "" H 3100 7250 50  0001 C CNN
F 3 "" H 3100 7250 50  0001 C CNN
	1    3100 7250
	1    0    0    -1  
$EndComp
Wire Wire Line
	3100 6750 3100 6600
Text Label 3150 6850 0    50   ~ 0
UPDI
Text Label 3150 6950 0    50   ~ 0
TX
Text Label 3150 7050 0    50   ~ 0
RX
Wire Wire Line
	2900 7150 3100 7150
Wire Wire Line
	2900 6750 3100 6750
$Comp
L Connector:Conn_01x05_Male J3
U 1 1 606DCDD4
P 2700 6950
F 0 "J3" H 2808 7331 50  0000 C CNN
F 1 "PC Conn" H 2808 7240 50  0000 C CNN
F 2 "Connector_PinHeader_2.54mm:PinHeader_1x05_P2.54mm_Vertical" H 2700 6950 50  0001 C CNN
F 3 "~" H 2700 6950 50  0001 C CNN
	1    2700 6950
	1    0    0    -1  
$EndComp
Wire Wire Line
	4000 2750 4000 4700
Wire Wire Line
	4000 4700 3200 4700
Connection ~ 2550 2750
Wire Wire Line
	2900 6850 3450 6850
Wire Wire Line
	3450 4500 3200 4500
Wire Wire Line
	2100 1000 2100 1250
Wire Wire Line
	3100 7250 3100 7150
$Comp
L power:GND #PWR021
U 1 1 6091E719
P 9950 1500
F 0 "#PWR021" H 9950 1250 50  0001 C CNN
F 1 "GND" H 9955 1327 50  0000 C CNN
F 2 "" H 9950 1500 50  0001 C CNN
F 3 "" H 9950 1500 50  0001 C CNN
	1    9950 1500
	1    0    0    -1  
$EndComp
$Comp
L power:VDC #PWR020
U 1 1 6091EFAF
P 9950 850
F 0 "#PWR020" H 9950 750 50  0001 C CNN
F 1 "VDC" H 9950 1125 50  0000 C CNN
F 2 "" H 9950 850 50  0001 C CNN
F 3 "" H 9950 850 50  0001 C CNN
	1    9950 850 
	1    0    0    -1  
$EndComp
$Comp
L Connector:Screw_Terminal_01x02 J4
U 1 1 60928330
P 10650 1100
F 0 "J4" H 10730 1092 50  0000 L CNN
F 1 "Power" H 10730 1001 50  0000 L CNN
F 2 "TerminalBlock_4Ucon:TerminalBlock_4Ucon_1x02_P3.50mm_Vertical" H 10650 1100 50  0001 C CNN
F 3 "~" H 10650 1100 50  0001 C CNN
	1    10650 1100
	1    0    0    -1  
$EndComp
Wire Wire Line
	10450 1200 10300 1200
Wire Wire Line
	9950 1200 9950 1500
Wire Wire Line
	10450 1100 10300 1100
Wire Wire Line
	9950 850  9950 1100
$Comp
L power:PWR_FLAG #FLG02
U 1 1 60933583
P 10300 900
F 0 "#FLG02" H 10300 975 50  0001 C CNN
F 1 "PWR_FLAG" H 10300 1073 50  0000 C CNN
F 2 "" H 10300 900 50  0001 C CNN
F 3 "~" H 10300 900 50  0001 C CNN
	1    10300 900 
	1    0    0    -1  
$EndComp
$Comp
L power:PWR_FLAG #FLG03
U 1 1 60949D6A
P 10300 1400
F 0 "#FLG03" H 10300 1475 50  0001 C CNN
F 1 "PWR_FLAG" H 10300 1573 50  0000 C CNN
F 2 "" H 10300 1400 50  0001 C CNN
F 3 "~" H 10300 1400 50  0001 C CNN
	1    10300 1400
	-1   0    0    1   
$EndComp
Wire Wire Line
	10300 1400 10300 1200
Connection ~ 10300 1200
Wire Wire Line
	10300 1200 9950 1200
Wire Wire Line
	10300 1100 10300 900 
Connection ~ 10300 1100
Wire Wire Line
	10300 1100 9950 1100
$Comp
L MCU_Microchip_ATtiny:ATtiny1604-SS U1
U 1 1 60600CD2
P 2600 4900
F 0 "U1" H 2150 5750 50  0000 C CNN
F 1 "ATtiny1604-SS" H 2200 5650 50  0000 C CNN
F 2 "Package_SO:SOIC-14_3.9x8.7mm_P1.27mm" H 2600 4900 50  0001 C CIN
F 3 "http://ww1.microchip.com/downloads/en/DeviceDoc/ATtiny804_1604-Data-Sheet-40002028A.pdf" H 2600 4900 50  0001 C CNN
	1    2600 4900
	1    0    0    -1  
$EndComp
Wire Wire Line
	2600 4200 2600 3800
Wire Wire Line
	2600 5950 2600 5600
$Comp
L Device:D_Schottky D7
U 1 1 6061DB7B
P 9350 2550
F 0 "D7" V 9304 2629 50  0000 L CNN
F 1 "DFLS160-7" V 9395 2629 50  0000 L CNN
F 2 "Diode_SMD:D_SOD-123" H 9350 2550 50  0001 C CNN
F 3 "https://www.mouser.com/datasheet/2/115/ds30548-86621.pdf" H 9350 2550 50  0001 C CNN
	1    9350 2550
	0    -1   -1   0   
$EndComp
Wire Wire Line
	9350 2200 9350 2400
Wire Wire Line
	9350 2700 9350 3000
Connection ~ 9350 3000
Wire Wire Line
	9350 3000 9800 3000
Connection ~ 9800 3000
Wire Wire Line
	9800 2500 9800 2250
$Comp
L Device:R R7
U 1 1 6064628F
P 8050 5200
F 0 "R7" V 8257 5200 50  0000 C CNN
F 1 "330R" V 8166 5200 50  0000 C CNN
F 2 "Resistor_SMD:R_0603_1608Metric" V 7980 5200 50  0001 C CNN
F 3 "~" H 8050 5200 50  0001 C CNN
	1    8050 5200
	0    -1   -1   0   
$EndComp
Wire Wire Line
	8200 5200 9500 5200
Wire Wire Line
	9500 5200 9500 4450
$Comp
L Diode:BAT54C D3
U 1 1 6067ED12
P 4600 2950
F 0 "D3" H 4600 3083 50  0000 C CNN
F 1 "BAT54C" H 4600 3174 50  0000 C CNN
F 2 "Package_TO_SOT_SMD:SOT-23" H 4675 3075 50  0001 L CNN
F 3 "http://www.diodes.com/_files/datasheets/ds11005.pdf" H 4520 2950 50  0001 C CNN
	1    4600 2950
	1    0    0    1   
$EndComp
$Comp
L Device:R R10
U 1 1 6069E4E0
P 4900 3550
F 0 "R10" H 4830 3504 50  0000 R CNN
F 1 "10K" H 4830 3595 50  0000 R CNN
F 2 "Resistor_SMD:R_0603_1608Metric" V 4830 3550 50  0001 C CNN
F 3 "~" H 4900 3550 50  0001 C CNN
	1    4900 3550
	-1   0    0    1   
$EndComp
Wire Wire Line
	2550 2750 4000 2750
Wire Wire Line
	4300 2950 4300 3400
Wire Wire Line
	4900 2950 4900 3400
Wire Wire Line
	3200 4600 4300 4600
Wire Wire Line
	4300 4600 4300 3700
Wire Wire Line
	3200 4800 4900 4800
Wire Wire Line
	4900 4800 4900 3700
Wire Wire Line
	4600 2750 4000 2750
Connection ~ 4000 2750
Wire Wire Line
	1000 5750 1000 4500
Wire Wire Line
	1000 4500 2000 4500
Wire Wire Line
	1400 5750 1400 4600
Wire Wire Line
	1400 4600 2000 4600
NoConn ~ -1000 4350
$Comp
L power:VDC #PWR09
U 1 1 6095F827
P 5050 1050
F 0 "#PWR09" H 5050 950 50  0001 C CNN
F 1 "VDC" H 5050 1325 50  0000 C CNN
F 2 "" H 5050 1050 50  0001 C CNN
F 3 "" H 5050 1050 50  0001 C CNN
	1    5050 1050
	1    0    0    -1  
$EndComp
$Comp
L Device:R R4
U 1 1 6095F82D
P 5050 1500
F 0 "R4" H 4980 1454 50  0000 R CNN
F 1 "500K" H 4980 1545 50  0000 R CNN
F 2 "Resistor_SMD:R_0603_1608Metric" V 4980 1500 50  0001 C CNN
F 3 "~" H 5050 1500 50  0001 C CNN
	1    5050 1500
	-1   0    0    1   
$EndComp
Wire Wire Line
	5050 1050 5050 1200
$Comp
L Device:R R9
U 1 1 6095F834
P 7200 2500
F 0 "R9" H 7130 2454 50  0000 R CNN
F 1 "23K7" H 7130 2545 50  0000 R CNN
F 2 "Resistor_SMD:R_0603_1608Metric" V 7130 2500 50  0001 C CNN
F 3 "~" H 7200 2500 50  0001 C CNN
	1    7200 2500
	-1   0    0    1   
$EndComp
$Comp
L Device:R R8
U 1 1 6095F83A
P 7200 2000
F 0 "R8" H 7300 2100 50  0000 C CNN
F 1 "124K" H 7350 2000 50  0000 C CNN
F 2 "Resistor_SMD:R_0603_1608Metric" V 7130 2000 50  0001 C CNN
F 3 "~" H 7200 2000 50  0001 C CNN
	1    7200 2000
	1    0    0    -1  
$EndComp
$Comp
L Device:C C5
U 1 1 6095F840
P 7600 2000
F 0 "C5" H 7400 1900 50  0000 C CNN
F 1 "47pF" H 7400 2000 50  0000 C CNN
F 2 "Capacitor_SMD:C_0603_1608Metric" H 7638 1850 50  0001 C CNN
F 3 "~" H 7600 2000 50  0001 C CNN
	1    7600 2000
	-1   0    0    1   
$EndComp
$Comp
L power:GND #PWR011
U 1 1 6095F846
P 5750 2000
F 0 "#PWR011" H 5750 1750 50  0001 C CNN
F 1 "GND" H 5755 1827 50  0000 C CNN
F 2 "" H 5750 2000 50  0001 C CNN
F 3 "" H 5750 2000 50  0001 C CNN
	1    5750 2000
	1    0    0    -1  
$EndComp
$Comp
L Device:D D6
U 1 1 6095F84C
P 6550 1000
F 0 "D6" H 6550 1216 50  0000 C CNN
F 1 "1N4148WS-HF" H 6550 1125 50  0000 C CNN
F 2 "Diode_SMD:D_SOD-323" H 6550 1000 50  0001 C CNN
F 3 "~" H 6550 1000 50  0001 C CNN
	1    6550 1000
	1    0    0    -1  
$EndComp
$Comp
L Device:C C4
U 1 1 6095F852
P 6400 1250
F 0 "C4" V 6148 1250 50  0000 C CNN
F 1 "100nF" V 6239 1250 50  0000 C CNN
F 2 "Capacitor_SMD:C_0603_1608Metric" H 6438 1100 50  0001 C CNN
F 3 "~" H 6400 1250 50  0001 C CNN
	1    6400 1250
	-1   0    0    1   
$EndComp
$Comp
L Device:L L1
U 1 1 6095F858
P 6900 1550
F 0 "L1" V 7090 1550 50  0000 C CNN
F 1 "10uH" V 6999 1550 50  0000 C CNN
F 2 "Inductor_SMD:L_1008_2520Metric" H 6900 1550 50  0001 C CNN
F 3 "https://www.mouser.com/datasheet/2/987/TYA252012_series_(Rev_A)-1864563.pdf" H 6900 1550 50  0001 C CNN
F 4 "TYA252012100M-10" H 6900 1550 50  0001 C CNN "Manufacturer_Part_Number"
F 5 "739-TYA252012100M-10" H 6900 1550 50  0001 C CNN "Mouser Part Number"
	1    6900 1550
	0    -1   -1   0   
$EndComp
$Comp
L Tinyfan_Library:MP2456GJ U2
U 1 1 6095F864
P 5750 1550
F 0 "U2" H 5750 1950 50  0000 C CNN
F 1 "MP2456GJ-P" H 5750 1850 50  0000 C CNN
F 2 "Package_TO_SOT_SMD:TSOT-23-6" H 6600 1650 50  0001 L CNN
F 3 "https://media.monolithicpower.com/document/MP2456_r1.01.pdf" H 6600 1550 50  0001 L CNN
F 4 "Monolithic Power Systems (MPS), MP2456GJ-P Step-Down Switching Regulator 500mA Adjustable, Minimum of 0.81 V, 6-Pin" H 6600 1450 50  0001 L CNN "Description"
F 5 "1" H 6600 1350 50  0001 L CNN "Height"
F 6 "946-MP2456GJ-P" H 6600 1250 50  0001 L CNN "Mouser Part Number"
F 7 "https://www.mouser.co.uk/ProductDetail/Monolithic-Power-Systems-MPS/MP2456GJ-P?qs=IW9Tsl75qsXKFSfDwfYogw%3D%3D" H 6600 1150 50  0001 L CNN "Mouser Price/Stock"
F 8 "Monolithic Power Systems (MPS)" H 6600 1050 50  0001 L CNN "Manufacturer_Name"
F 9 "MP2456GJ-P" H 6600 950 50  0001 L CNN "Manufacturer_Part_Number"
	1    5750 1550
	1    0    0    -1  
$EndComp
$Comp
L Device:C C6
U 1 1 6095F86A
P 8100 1850
F 0 "C6" H 7985 1804 50  0000 R CNN
F 1 "10uF" H 7985 1895 50  0000 R CNN
F 2 "Capacitor_SMD:C_0805_2012Metric" H 8138 1700 50  0001 C CNN
F 3 "https://www.mouser.com/datasheet/2/585/MLCC-1837944.pdf" H 8100 1850 50  0001 C CNN
	1    8100 1850
	-1   0    0    1   
$EndComp
$Comp
L power:GND #PWR016
U 1 1 6095F870
P 8100 2150
F 0 "#PWR016" H 8100 1900 50  0001 C CNN
F 1 "GND" H 8105 1977 50  0000 C CNN
F 2 "" H 8100 2150 50  0001 C CNN
F 3 "" H 8100 2150 50  0001 C CNN
	1    8100 2150
	1    0    0    -1  
$EndComp
$Comp
L Device:D_Schottky D4
U 1 1 6095F876
P 6600 1700
F 0 "D4" V 6554 1779 50  0000 L CNN
F 1 "DFLS160-7" V 6645 1779 50  0000 L CNN
F 2 "Diode_SMD:D_SOD-123" H 6600 1700 50  0001 C CNN
F 3 "https://www.mouser.com/datasheet/2/115/ds30548-86621.pdf" H 6600 1700 50  0001 C CNN
	1    6600 1700
	0    1    1    0   
$EndComp
$Comp
L power:+5V #PWR015
U 1 1 6095F87C
P 8100 1000
F 0 "#PWR015" H 8100 850 50  0001 C CNN
F 1 "+5V" H 8115 1173 50  0000 C CNN
F 2 "" H 8100 1000 50  0001 C CNN
F 3 "" H 8100 1000 50  0001 C CNN
	1    8100 1000
	1    0    0    -1  
$EndComp
Wire Wire Line
	8100 1000 8100 1550
Wire Wire Line
	8100 1550 7850 1550
Wire Wire Line
	8100 2150 8100 2100
$Comp
L power:PWR_FLAG #FLG01
U 1 1 6095F886
P 7850 1400
F 0 "#FLG01" H 7850 1475 50  0001 C CNN
F 1 "PWR_FLAG" H 7850 1573 50  0000 C CNN
F 2 "" H 7850 1400 50  0001 C CNN
F 3 "~" H 7850 1400 50  0001 C CNN
	1    7850 1400
	1    0    0    -1  
$EndComp
Wire Wire Line
	7850 1550 7850 1400
Connection ~ 7850 1550
Wire Wire Line
	7850 1550 7600 1550
$Comp
L Device:CP C3
U 1 1 6095F88F
P 4550 1600
F 0 "C3" H 4668 1646 50  0000 L CNN
F 1 "16uF" H 4668 1555 50  0000 L CNN
F 2 "Capacitor_SMD:C_Elec_6.3x7.7" H 4588 1450 50  0001 C CNN
F 3 "https://www.mouser.com/datasheet/2/445/865080645012-1726612.pdf" H 4550 1600 50  0001 C CNN
	1    4550 1600
	1    0    0    -1  
$EndComp
$Comp
L power:GND #PWR08
U 1 1 6095F895
P 4550 1900
F 0 "#PWR08" H 4550 1650 50  0001 C CNN
F 1 "GND" H 4555 1727 50  0000 C CNN
F 2 "" H 4550 1900 50  0001 C CNN
F 3 "" H 4550 1900 50  0001 C CNN
	1    4550 1900
	1    0    0    -1  
$EndComp
Wire Wire Line
	4550 1900 4550 1750
Wire Wire Line
	4550 1200 5050 1200
Wire Wire Line
	4550 1200 4550 1450
$Comp
L Device:C C2
U 1 1 6095F8A0
P 4050 1600
F 0 "C2" H 3935 1554 50  0000 R CNN
F 1 "0.1uF" H 3935 1645 50  0000 R CNN
F 2 "Capacitor_SMD:C_0603_1608Metric" H 4088 1450 50  0001 C CNN
F 3 "https://www.mouser.com/datasheet/2/445/885382206004-1728027.pdf" H 4050 1600 50  0001 C CNN
F 4 "885382206004" H 4050 1600 50  0001 C CNN "Manufacturer_Part_Number"
F 5 "710-885382206004" H 4050 1600 50  0001 C CNN "Mouser Part Number"
	1    4050 1600
	-1   0    0    1   
$EndComp
$Comp
L power:GND #PWR07
U 1 1 6095F8A6
P 4050 1900
F 0 "#PWR07" H 4050 1650 50  0001 C CNN
F 1 "GND" H 4055 1727 50  0000 C CNN
F 2 "" H 4050 1900 50  0001 C CNN
F 3 "" H 4050 1900 50  0001 C CNN
	1    4050 1900
	1    0    0    -1  
$EndComp
Wire Wire Line
	4050 1900 4050 1750
Wire Wire Line
	4050 1450 4050 1200
Wire Wire Line
	4050 1200 4550 1200
Connection ~ 4550 1200
Wire Wire Line
	5050 1200 5050 1350
Connection ~ 5050 1200
Wire Wire Line
	5050 1200 5350 1200
Wire Wire Line
	5350 1200 5350 1450
Wire Wire Line
	5050 1650 5350 1650
Wire Wire Line
	5750 1850 5750 2000
Wire Wire Line
	6150 1450 6150 1000
Wire Wire Line
	6150 1000 6400 1000
Wire Wire Line
	6400 1000 6400 1100
Connection ~ 6400 1000
Wire Wire Line
	6150 1550 6400 1550
Wire Wire Line
	6400 1550 6400 1400
$Comp
L power:GND #PWR013
U 1 1 6095F8BC
P 6600 1950
F 0 "#PWR013" H 6600 1700 50  0001 C CNN
F 1 "GND" H 6605 1777 50  0000 C CNN
F 2 "" H 6600 1950 50  0001 C CNN
F 3 "" H 6600 1950 50  0001 C CNN
	1    6600 1950
	1    0    0    -1  
$EndComp
Wire Wire Line
	6400 1550 6600 1550
Connection ~ 6400 1550
Wire Wire Line
	6700 1000 7200 1000
Wire Wire Line
	7200 1000 7200 1550
Wire Wire Line
	6600 1950 6600 1850
Wire Wire Line
	7600 2250 7600 2150
Wire Wire Line
	6150 2250 6150 1650
Wire Wire Line
	6150 2250 7200 2250
Wire Wire Line
	7200 2350 7200 2250
Connection ~ 7200 2250
Wire Wire Line
	7200 2250 7600 2250
Wire Wire Line
	7200 2250 7200 2150
Wire Wire Line
	7200 1850 7200 1550
Connection ~ 7200 1550
Wire Wire Line
	7600 1850 7600 1550
Wire Wire Line
	7600 1550 7200 1550
Connection ~ 7600 1550
Wire Wire Line
	6750 1550 6600 1550
Connection ~ 6600 1550
Wire Wire Line
	7050 1550 7200 1550
$Comp
L power:GND #PWR014
U 1 1 60963C9C
P 7200 2800
F 0 "#PWR014" H 7200 2550 50  0001 C CNN
F 1 "GND" H 7205 2627 50  0000 C CNN
F 2 "" H 7200 2800 50  0001 C CNN
F 3 "" H 7200 2800 50  0001 C CNN
	1    7200 2800
	1    0    0    -1  
$EndComp
Wire Wire Line
	7200 2800 7200 2650
$Comp
L Mechanical:MountingHole_Pad H1
U 1 1 605F95C8
P 9750 5850
F 0 "H1" H 9850 5899 50  0001 L CNN
F 1 "MountingHole_Pad" H 9850 5808 50  0001 L CNN
F 2 "MountingHole:MountingHole_2.2mm_M2_Pad" H 9750 5850 50  0001 C CNN
F 3 "~" H 9750 5850 50  0001 C CNN
	1    9750 5850
	1    0    0    -1  
$EndComp
$Comp
L power:GND #PWR023
U 1 1 605F95CE
P 10200 6100
F 0 "#PWR023" H 10200 5850 50  0001 C CNN
F 1 "GND" H 10205 5927 50  0000 C CNN
F 2 "" H 10200 6100 50  0001 C CNN
F 3 "" H 10200 6100 50  0001 C CNN
	1    10200 6100
	1    0    0    -1  
$EndComp
Wire Wire Line
	10200 5950 10200 6100
Connection ~ 10200 5950
Wire Wire Line
	9750 5950 10000 5950
Wire Wire Line
	10200 5950 10350 5950
$Comp
L Mechanical:MountingHole_Pad H2
U 1 1 605F95D8
P 10000 5850
F 0 "H2" H 10100 5899 50  0001 L CNN
F 1 "MountingHole_Pad" H 10100 5808 50  0001 L CNN
F 2 "MountingHole:MountingHole_2.2mm_M2_Pad" H 10000 5850 50  0001 C CNN
F 3 "~" H 10000 5850 50  0001 C CNN
	1    10000 5850
	1    0    0    -1  
$EndComp
Connection ~ 10000 5950
Wire Wire Line
	10000 5950 10200 5950
$Comp
L Mechanical:MountingHole_Pad H3
U 1 1 605F95E0
P 10350 5850
F 0 "H3" H 10450 5899 50  0001 L CNN
F 1 "MountingHole_Pad" H 10450 5808 50  0001 L CNN
F 2 "MountingHole:MountingHole_2.2mm_M2_Pad" H 10350 5850 50  0001 C CNN
F 3 "~" H 10350 5850 50  0001 C CNN
	1    10350 5850
	1    0    0    -1  
$EndComp
Connection ~ 10350 5950
Wire Wire Line
	10350 5950 10550 5950
$Comp
L Mechanical:MountingHole_Pad H4
U 1 1 605F95E8
P 10550 5850
F 0 "H4" H 10650 5899 50  0001 L CNN
F 1 "MountingHole_Pad" H 10650 5808 50  0001 L CNN
F 2 "MountingHole:MountingHole_2.2mm_M2_Pad" H 10550 5850 50  0001 C CNN
F 3 "~" H 10550 5850 50  0001 C CNN
	1    10550 5850
	1    0    0    -1  
$EndComp
Wire Wire Line
	3450 6850 3450 4500
Wire Wire Line
	2000 4800 1950 4800
Wire Wire Line
	1950 4800 1950 6200
Wire Wire Line
	1950 6200 3550 6200
Wire Wire Line
	3550 6200 3550 6950
Wire Wire Line
	3550 6950 2900 6950
Wire Wire Line
	2000 4700 1850 4700
Wire Wire Line
	1850 4700 1850 6300
Wire Wire Line
	1850 6300 3650 6300
Wire Wire Line
	3650 6300 3650 7050
Wire Wire Line
	3650 7050 2900 7050
$Comp
L Device:D_Zener D8
U 1 1 606E7CCA
P 8500 1850
F 0 "D8" V 8454 1930 50  0000 L CNN
F 1 "SMBJ5.0A" V 8545 1930 50  0000 L CNN
F 2 "Diode_SMD:D_SMB" H 8500 1850 50  0001 C CNN
F 3 "https://www.mouser.com/datasheet/2/240/Littelfuse_TVS_Diode_SMBJ_Datasheet.pdf-1108540.pdf" H 8500 1850 50  0001 C CNN
F 4 "576-SMBJ5.0A" H 8500 1850 50  0001 C CNN "Mouser Part Number"
	1    8500 1850
	0    1    1    0   
$EndComp
Wire Wire Line
	8100 1700 8100 1550
Connection ~ 8100 1550
Wire Wire Line
	8100 1550 8500 1550
Wire Wire Line
	8500 1550 8500 1700
Wire Wire Line
	8500 2000 8500 2100
Wire Wire Line
	8500 2100 8100 2100
Connection ~ 8100 2100
Wire Wire Line
	8100 2100 8100 2000
$Comp
L power:GND #PWR024
U 1 1 60702286
P 3350 3900
F 0 "#PWR024" H 3350 3650 50  0001 C CNN
F 1 "GND" H 3355 3727 50  0000 C CNN
F 2 "" H 3350 3900 50  0001 C CNN
F 3 "" H 3350 3900 50  0001 C CNN
	1    3350 3900
	1    0    0    -1  
$EndComp
Wire Wire Line
	2850 3800 2600 3800
Connection ~ 2600 3800
Wire Wire Line
	2600 3800 2600 3650
Wire Wire Line
	3150 3800 3350 3800
Wire Wire Line
	3350 3800 3350 3900
$Comp
L Device:C C7
U 1 1 60710D36
P 3000 3800
F 0 "C7" V 2748 3800 50  0000 C CNN
F 1 "100nF" V 2839 3800 50  0000 C CNN
F 2 "Capacitor_SMD:C_0603_1608Metric" H 3038 3650 50  0001 C CNN
F 3 "~" H 3000 3800 50  0001 C CNN
	1    3000 3800
	0    -1   -1   0   
$EndComp
Wire Wire Line
	7300 5000 7300 5200
Wire Wire Line
	7300 5200 7900 5200
Wire Wire Line
	3200 5000 7300 5000
NoConn ~ 3200 5100
NoConn ~ 3200 5200
$Comp
L Isolator:PC817 U3
U 1 1 607DA46D
P 8450 3250
F 0 "U3" H 8450 3575 50  0000 C CNN
F 1 "PC817" H 8450 3484 50  0000 C CNN
F 2 "Package_DIP:SMDIP-4_W7.62mm" H 8250 3050 50  0001 L CIN
F 3 "http://www.soselectronic.cz/a_info/resource/d/pc817.pdf" H 8450 3250 50  0001 L CNN
	1    8450 3250
	1    0    0    -1  
$EndComp
Wire Wire Line
	8750 4000 8750 4250
Wire Wire Line
	8750 3550 8750 3350
Connection ~ 8750 3550
Wire Wire Line
	8750 3000 8750 3150
Wire Wire Line
	7800 3150 8150 3150
Wire Wire Line
	7300 4900 7300 3150
Wire Wire Line
	7300 3150 7500 3150
Wire Wire Line
	3200 4900 7300 4900
$Comp
L power:GND #PWR025
U 1 1 6085B8D8
P 8150 3500
F 0 "#PWR025" H 8150 3250 50  0001 C CNN
F 1 "GND" H 8155 3327 50  0000 C CNN
F 2 "" H 8150 3500 50  0001 C CNN
F 3 "" H 8150 3500 50  0001 C CNN
	1    8150 3500
	1    0    0    -1  
$EndComp
Wire Wire Line
	8150 3350 8150 3500
$Comp
L Jumper:SolderJumper_2_Open JP1
U 1 1 60861FA9
P 9800 2650
F 0 "JP1" V 9754 2718 50  0000 L CNN
F 1 "VDS Pow" V 9845 2718 50  0000 L CNN
F 2 "Jumper:SolderJumper-2_P1.3mm_Open_RoundedPad1.0x1.5mm" H 9800 2650 50  0001 C CNN
F 3 "~" H 9800 2650 50  0001 C CNN
	1    9800 2650
	0    1    1    0   
$EndComp
Wire Wire Line
	9800 2800 9800 3000
$EndSCHEMATC
