(export (version D)
  (design
    (source D:\Projects\tinyfan\kicad\tinyfan\tinyfan_v2.sch)
    (date "3/28/2021 11:41:19 PM")
    (tool "Eeschema (5.1.9)-1")
    (sheet (number 1) (name /) (tstamps /)
      (title_block
        (title)
        (company)
        (rev)
        (date)
        (source tinyfan_v2.sch)
        (comment (number 1) (value ""))
        (comment (number 2) (value ""))
        (comment (number 3) (value ""))
        (comment (number 4) (value "")))))
  (components
    (comp (ref J1)
      (value Sensor)
      (footprint Connector_PinHeader_1.27mm:PinHeader_1x03_P1.27mm_Vertical)
      (datasheet ~)
      (libsource (lib Connector) (part Conn_01x03_Male) (description "Generic connector, single row, 01x03, script generated (kicad-library-utils/schlib/autogen/connector/)"))
      (sheetpath (names /) (tstamps /))
      (tstamp 605D03B6))
    (comp (ref J2)
      (value Sensor)
      (footprint Connector_PinHeader_1.27mm:PinHeader_1x03_P1.27mm_Vertical)
      (datasheet ~)
      (libsource (lib Connector) (part Conn_01x03_Male) (description "Generic connector, single row, 01x03, script generated (kicad-library-utils/schlib/autogen/connector/)"))
      (sheetpath (names /) (tstamps /))
      (tstamp 605D542E))
    (comp (ref M1)
      (value Fan_Tacho_PWM)
      (footprint Connector:FanPinHeader_1x04_P2.54mm_Vertical)
      (datasheet http://www.formfactors.org/developer%5Cspecs%5Crev1_2_public.pdf)
      (libsource (lib Motor) (part Fan_Tacho_PWM) (description "Fan, tacho output, PWM input, 4-pin connector"))
      (sheetpath (names /) (tstamps /))
      (tstamp 605D65FB))
    (comp (ref Q2)
      (value PMV100EPAR)
      (footprint Package_TO_SOT_SMD:SOT-23)
      (datasheet https://www.mouser.com/datasheet/2/916/PMV100EPA-1839898.pdf)
      (fields
        (field (name "Mouser Part Number") 771-PMV100EPAR))
      (libsource (lib Transistor_FET) (part BSS83P) (description "-0.33A Id, -60V Vds, P-Channel MOSFET, SOT-23"))
      (sheetpath (names /) (tstamps /))
      (tstamp 605D9CED))
    (comp (ref R12)
      (value R)
      (footprint Resistor_SMD:R_0603_1608Metric)
      (datasheet ~)
      (libsource (lib Device) (part R) (description Resistor))
      (sheetpath (names /) (tstamps /))
      (tstamp 605E35E3))
    (comp (ref R13)
      (value R)
      (footprint Resistor_SMD:R_0603_1608Metric)
      (datasheet ~)
      (libsource (lib Device) (part R) (description Resistor))
      (sheetpath (names /) (tstamps /))
      (tstamp 605E5F94))
    (comp (ref D5)
      (value BZX84-C10)
      (footprint Diode_SMD:D_SOT-23_ANK)
      (datasheet https://www.mouser.com/datasheet/2/916/BZX84_SER-1319896.pdf)
      (fields
        (field (name "Mouser Part Number") 771-BZX84-C10-T/R))
      (libsource (lib Diode) (part BZX84Cxx) (description "300mW Zener Diode, SOT-23"))
      (sheetpath (names /) (tstamps /))
      (tstamp 605E77BB))
    (comp (ref Q1)
      (value BC846BLT1G)
      (footprint Package_TO_SOT_SMD:SOT-23)
      (datasheet https://www.mouser.com/datasheet/2/308/BC846ALT1_D-1387679.pdf)
      (fields
        (field (name "Mouser Part Number") 863-BC846BLT1G))
      (libsource (lib Device) (part Q_NPN_BEC) (description "NPN transistor, base/emitter/collector"))
      (sheetpath (names /) (tstamps /))
      (tstamp 605E8B02))
    (comp (ref R11)
      (value R)
      (footprint Resistor_SMD:R_0603_1608Metric)
      (datasheet ~)
      (libsource (lib Device) (part R) (description Resistor))
      (sheetpath (names /) (tstamps /))
      (tstamp 605EAF3C))
    (comp (ref R2)
      (value 4K7)
      (footprint Resistor_SMD:R_0603_1608Metric)
      (datasheet ~)
      (libsource (lib Device) (part R) (description Resistor))
      (sheetpath (names /) (tstamps /))
      (tstamp 6060649D))
    (comp (ref R3)
      (value 100K)
      (footprint Resistor_SMD:R_0603_1608Metric)
      (datasheet ~)
      (libsource (lib Device) (part R) (description Resistor))
      (sheetpath (names /) (tstamps /))
      (tstamp 60606F73))
    (comp (ref R1)
      (value 100R)
      (footprint Resistor_SMD:R_0603_1608Metric)
      (datasheet ~)
      (libsource (lib Device) (part R) (description Resistor))
      (sheetpath (names /) (tstamps /))
      (tstamp 60617575))
    (comp (ref C1)
      (value 1mF)
      (footprint Capacitor_SMD:C_0603_1608Metric)
      (datasheet https://www.mouser.com/datasheet/2/585/MLCC-1837944.pdf)
      (fields
        (field (name "Mouser Part Number") 187-CL03A105MQ3CSNC))
      (libsource (lib Device) (part C) (description "Unpolarized capacitor"))
      (sheetpath (names /) (tstamps /))
      (tstamp 6061813D))
    (comp (ref R5)
      (value 330R)
      (footprint Resistor_SMD:R_0603_1608Metric)
      (datasheet ~)
      (libsource (lib Device) (part R) (description Resistor))
      (sheetpath (names /) (tstamps /))
      (tstamp 606229CE))
    (comp (ref D1)
      (value Status)
      (footprint LED_SMD:LED_1206_3216Metric)
      (datasheet ~)
      (libsource (lib Device) (part LED) (description "Light emitting diode"))
      (sheetpath (names /) (tstamps /))
      (tstamp 60640539))
    (comp (ref R6)
      (value 330R)
      (footprint Resistor_SMD:R_0603_1608Metric)
      (datasheet ~)
      (libsource (lib Device) (part R) (description Resistor))
      (sheetpath (names /) (tstamps /))
      (tstamp 606430A7))
    (comp (ref D2)
      (value Fan)
      (footprint LED_SMD:LED_1206_3216Metric)
      (datasheet ~)
      (libsource (lib Device) (part LED) (description "Light emitting diode"))
      (sheetpath (names /) (tstamps /))
      (tstamp 6064349E))
    (comp (ref J3)
      (value "PC Conn")
      (footprint Connector_PinHeader_2.54mm:PinHeader_1x05_P2.54mm_Vertical)
      (datasheet ~)
      (libsource (lib Connector) (part Conn_01x05_Male) (description "Generic connector, single row, 01x05, script generated (kicad-library-utils/schlib/autogen/connector/)"))
      (sheetpath (names /) (tstamps /))
      (tstamp 606DCDD4))
    (comp (ref J4)
      (value Power)
      (footprint TerminalBlock_4Ucon:TerminalBlock_4Ucon_1x02_P3.50mm_Vertical)
      (datasheet ~)
      (libsource (lib Connector) (part Screw_Terminal_01x02) (description "Generic screw terminal, single row, 01x02, script generated (kicad-library-utils/schlib/autogen/connector/)"))
      (sheetpath (names /) (tstamps /))
      (tstamp 60928330))
    (comp (ref U1)
      (value ATtiny1604-SS)
      (footprint Package_SO:SOIC-14_3.9x8.7mm_P1.27mm)
      (datasheet http://ww1.microchip.com/downloads/en/DeviceDoc/ATtiny804_1604-Data-Sheet-40002028A.pdf)
      (libsource (lib MCU_Microchip_ATtiny) (part ATtiny1604-SS) (description "20MHz, 16kB Flash, 1kB SRAM, 256B EEPROM, SOIC-14"))
      (sheetpath (names /) (tstamps /))
      (tstamp 60600CD2))
    (comp (ref D7)
      (value DFLS160-7)
      (footprint Diode_SMD:D_SOD-123)
      (datasheet https://www.mouser.com/datasheet/2/115/ds30548-86621.pdf)
      (libsource (lib Device) (part D_Schottky) (description "Schottky diode"))
      (sheetpath (names /) (tstamps /))
      (tstamp 6061DB7B))
    (comp (ref JP1)
      (value "Fan Vcc")
      (footprint Connector_PinHeader_1.27mm:PinHeader_1x02_P1.27mm_Vertical)
      (datasheet ~)
      (libsource (lib Jumper) (part Jumper_2_Open) (description "Jumper, 2-pole, open"))
      (sheetpath (names /) (tstamps /))
      (tstamp 60630BA9))
    (comp (ref R7)
      (value R)
      (footprint Resistor_SMD:R_0603_1608Metric)
      (datasheet ~)
      (libsource (lib Device) (part R) (description Resistor))
      (sheetpath (names /) (tstamps /))
      (tstamp 6064628F))
    (comp (ref D3)
      (value BAT54C)
      (footprint Package_TO_SOT_SMD:SOT-23)
      (datasheet http://www.diodes.com/_files/datasheets/ds11005.pdf)
      (libsource (lib Diode) (part BAT54C) (description "dual schottky barrier diode, common cathode"))
      (sheetpath (names /) (tstamps /))
      (tstamp 6067ED12))
    (comp (ref R10)
      (value 10K)
      (footprint Resistor_SMD:R_0603_1608Metric)
      (datasheet ~)
      (libsource (lib Device) (part R) (description Resistor))
      (sheetpath (names /) (tstamps /))
      (tstamp 6069E4E0))
    (comp (ref R4)
      (value 500K)
      (footprint Resistor_SMD:R_0603_1608Metric)
      (datasheet ~)
      (libsource (lib Device) (part R) (description Resistor))
      (sheetpath (names /) (tstamps /))
      (tstamp 6095F82D))
    (comp (ref R9)
      (value 23K7)
      (footprint Resistor_SMD:R_0603_1608Metric)
      (datasheet ~)
      (libsource (lib Device) (part R) (description Resistor))
      (sheetpath (names /) (tstamps /))
      (tstamp 6095F834))
    (comp (ref R8)
      (value 124K)
      (footprint Resistor_SMD:R_0603_1608Metric)
      (datasheet ~)
      (libsource (lib Device) (part R) (description Resistor))
      (sheetpath (names /) (tstamps /))
      (tstamp 6095F83A))
    (comp (ref C5)
      (value 47pF)
      (footprint Capacitor_SMD:C_0603_1608Metric)
      (datasheet ~)
      (libsource (lib Device) (part C) (description "Unpolarized capacitor"))
      (sheetpath (names /) (tstamps /))
      (tstamp 6095F840))
    (comp (ref D6)
      (value 1N4148WS-HF)
      (footprint Diode_SMD:D_SOD-323)
      (datasheet ~)
      (libsource (lib Device) (part D) (description Diode))
      (sheetpath (names /) (tstamps /))
      (tstamp 6095F84C))
    (comp (ref C4)
      (value 100nF)
      (footprint Capacitor_SMD:C_0603_1608Metric)
      (datasheet ~)
      (libsource (lib Device) (part C) (description "Unpolarized capacitor"))
      (sheetpath (names /) (tstamps /))
      (tstamp 6095F852))
    (comp (ref L1)
      (value 10uH)
      (footprint Inductor_SMD:L_1008_2520Metric)
      (datasheet "https://www.mouser.com/datasheet/2/987/TYA252012_series_(Rev_A)-1864563.pdf")
      (fields
        (field (name Manufacturer_Part_Number) TYA252012100M-10)
        (field (name "Mouser Part Number") 739-TYA252012100M-10))
      (libsource (lib Device) (part L) (description Inductor))
      (sheetpath (names /) (tstamps /))
      (tstamp 6095F858))
    (comp (ref U2)
      (value MP2456GJ-P)
      (footprint Package_TO_SOT_SMD:TSOT-23-6)
      (datasheet https://media.monolithicpower.com/document/MP2456_r1.01.pdf)
      (fields
        (field (name Description) "Monolithic Power Systems (MPS), MP2456GJ-P Step-Down Switching Regulator 500mA Adjustable, Minimum of 0.81 V, 6-Pin")
        (field (name Height) 1)
        (field (name Manufacturer_Name) "Monolithic Power Systems (MPS)")
        (field (name Manufacturer_Part_Number) MP2456GJ-P)
        (field (name "Mouser Part Number") 946-MP2456GJ-P)
        (field (name "Mouser Price/Stock") https://www.mouser.co.uk/ProductDetail/Monolithic-Power-Systems-MPS/MP2456GJ-P?qs=IW9Tsl75qsXKFSfDwfYogw%3D%3D))
      (libsource (lib Tinyfan_Library) (part MP2456GJ) (description ""))
      (sheetpath (names /) (tstamps /))
      (tstamp 6095F864))
    (comp (ref C6)
      (value 10uF)
      (footprint Capacitor_SMD:C_0805_2012Metric)
      (datasheet https://www.mouser.com/datasheet/2/585/MLCC-1837944.pdf)
      (libsource (lib Device) (part C) (description "Unpolarized capacitor"))
      (sheetpath (names /) (tstamps /))
      (tstamp 6095F86A))
    (comp (ref D4)
      (value DFLS160-7)
      (footprint Diode_SMD:D_SOD-123)
      (datasheet https://www.mouser.com/datasheet/2/115/ds30548-86621.pdf)
      (libsource (lib Device) (part D_Schottky) (description "Schottky diode"))
      (sheetpath (names /) (tstamps /))
      (tstamp 6095F876))
    (comp (ref C3)
      (value 16uF)
      (footprint Capacitor_SMD:C_Elec_6.3x7.7)
      (datasheet https://www.mouser.com/datasheet/2/445/865080645012-1726612.pdf)
      (libsource (lib Device) (part CP) (description "Polarized capacitor"))
      (sheetpath (names /) (tstamps /))
      (tstamp 6095F88F))
    (comp (ref C2)
      (value 0.1uF)
      (footprint Capacitor_SMD:C_0603_1608Metric)
      (datasheet https://www.mouser.com/datasheet/2/445/885382206004-1728027.pdf)
      (fields
        (field (name Manufacturer_Part_Number) 885382206004)
        (field (name "Mouser Part Number") 710-885382206004))
      (libsource (lib Device) (part C) (description "Unpolarized capacitor"))
      (sheetpath (names /) (tstamps /))
      (tstamp 6095F8A0))
    (comp (ref H1)
      (value MountingHole_Pad)
      (footprint MountingHole:MountingHole_3.2mm_M3_DIN965_Pad)
      (datasheet ~)
      (libsource (lib Mechanical) (part MountingHole_Pad) (description "Mounting Hole with connection"))
      (sheetpath (names /) (tstamps /))
      (tstamp 605F95C8))
    (comp (ref H2)
      (value MountingHole_Pad)
      (footprint MountingHole:MountingHole_3.2mm_M3_DIN965_Pad)
      (datasheet ~)
      (libsource (lib Mechanical) (part MountingHole_Pad) (description "Mounting Hole with connection"))
      (sheetpath (names /) (tstamps /))
      (tstamp 605F95D8))
    (comp (ref H3)
      (value MountingHole_Pad)
      (footprint MountingHole:MountingHole_3.2mm_M3_DIN965_Pad)
      (datasheet ~)
      (libsource (lib Mechanical) (part MountingHole_Pad) (description "Mounting Hole with connection"))
      (sheetpath (names /) (tstamps /))
      (tstamp 605F95E0))
    (comp (ref H4)
      (value MountingHole_Pad)
      (footprint MountingHole:MountingHole_3.2mm_M3_DIN965_Pad)
      (datasheet ~)
      (libsource (lib Mechanical) (part MountingHole_Pad) (description "Mounting Hole with connection"))
      (sheetpath (names /) (tstamps /))
      (tstamp 605F95E8)))
  (libparts
    (libpart (lib Connector) (part Conn_01x03_Male)
      (description "Generic connector, single row, 01x03, script generated (kicad-library-utils/schlib/autogen/connector/)")
      (docs ~)
      (footprints
        (fp Connector*:*_1x??_*))
      (fields
        (field (name Reference) J)
        (field (name Value) Conn_01x03_Male))
      (pins
        (pin (num 1) (name Pin_1) (type passive))
        (pin (num 2) (name Pin_2) (type passive))
        (pin (num 3) (name Pin_3) (type passive))))
    (libpart (lib Connector) (part Conn_01x05_Male)
      (description "Generic connector, single row, 01x05, script generated (kicad-library-utils/schlib/autogen/connector/)")
      (docs ~)
      (footprints
        (fp Connector*:*_1x??_*))
      (fields
        (field (name Reference) J)
        (field (name Value) Conn_01x05_Male))
      (pins
        (pin (num 1) (name Pin_1) (type passive))
        (pin (num 2) (name Pin_2) (type passive))
        (pin (num 3) (name Pin_3) (type passive))
        (pin (num 4) (name Pin_4) (type passive))
        (pin (num 5) (name Pin_5) (type passive))))
    (libpart (lib Connector) (part Screw_Terminal_01x02)
      (description "Generic screw terminal, single row, 01x02, script generated (kicad-library-utils/schlib/autogen/connector/)")
      (docs ~)
      (footprints
        (fp TerminalBlock*:*))
      (fields
        (field (name Reference) J)
        (field (name Value) Screw_Terminal_01x02))
      (pins
        (pin (num 1) (name Pin_1) (type passive))
        (pin (num 2) (name Pin_2) (type passive))))
    (libpart (lib Device) (part C)
      (description "Unpolarized capacitor")
      (docs ~)
      (footprints
        (fp C_*))
      (fields
        (field (name Reference) C)
        (field (name Value) C))
      (pins
        (pin (num 1) (name ~) (type passive))
        (pin (num 2) (name ~) (type passive))))
    (libpart (lib Device) (part CP)
      (description "Polarized capacitor")
      (docs ~)
      (footprints
        (fp CP_*))
      (fields
        (field (name Reference) C)
        (field (name Value) CP))
      (pins
        (pin (num 1) (name ~) (type passive))
        (pin (num 2) (name ~) (type passive))))
    (libpart (lib Device) (part D)
      (description Diode)
      (docs ~)
      (footprints
        (fp TO-???*)
        (fp *_Diode_*)
        (fp *SingleDiode*)
        (fp D_*))
      (fields
        (field (name Reference) D)
        (field (name Value) D))
      (pins
        (pin (num 1) (name K) (type passive))
        (pin (num 2) (name A) (type passive))))
    (libpart (lib Device) (part D_Schottky)
      (description "Schottky diode")
      (docs ~)
      (footprints
        (fp TO-???*)
        (fp *_Diode_*)
        (fp *SingleDiode*)
        (fp D_*))
      (fields
        (field (name Reference) D)
        (field (name Value) D_Schottky))
      (pins
        (pin (num 1) (name K) (type passive))
        (pin (num 2) (name A) (type passive))))
    (libpart (lib Device) (part L)
      (description Inductor)
      (docs ~)
      (footprints
        (fp Choke_*)
        (fp *Coil*)
        (fp Inductor_*)
        (fp L_*))
      (fields
        (field (name Reference) L)
        (field (name Value) L))
      (pins
        (pin (num 1) (name 1) (type passive))
        (pin (num 2) (name 2) (type passive))))
    (libpart (lib Device) (part LED)
      (description "Light emitting diode")
      (docs ~)
      (footprints
        (fp LED*)
        (fp LED_SMD:*)
        (fp LED_THT:*))
      (fields
        (field (name Reference) D)
        (field (name Value) LED))
      (pins
        (pin (num 1) (name K) (type passive))
        (pin (num 2) (name A) (type passive))))
    (libpart (lib Device) (part Q_NPN_BEC)
      (description "NPN transistor, base/emitter/collector")
      (docs ~)
      (fields
        (field (name Reference) Q)
        (field (name Value) Q_NPN_BEC))
      (pins
        (pin (num 1) (name B) (type input))
        (pin (num 2) (name E) (type passive))
        (pin (num 3) (name C) (type passive))))
    (libpart (lib Device) (part R)
      (description Resistor)
      (docs ~)
      (footprints
        (fp R_*))
      (fields
        (field (name Reference) R)
        (field (name Value) R))
      (pins
        (pin (num 1) (name ~) (type passive))
        (pin (num 2) (name ~) (type passive))))
    (libpart (lib Diode) (part BAT54C)
      (description "dual schottky barrier diode, common cathode")
      (docs http://www.diodes.com/_files/datasheets/ds11005.pdf)
      (footprints
        (fp SOT?23*))
      (fields
        (field (name Reference) D)
        (field (name Value) BAT54C)
        (field (name Footprint) Package_TO_SOT_SMD:SOT-23))
      (pins
        (pin (num 1) (name ~) (type passive))
        (pin (num 2) (name ~) (type passive))
        (pin (num 3) (name ~) (type passive))))
    (libpart (lib Diode) (part BZX84Cxx)
      (description "300mW Zener Diode, SOT-23")
      (docs https://diotec.com/tl_files/diotec/files/pdf/datasheets/bzx84c2v4.pdf)
      (footprints
        (fp D*SOT?23*ANK*))
      (fields
        (field (name Reference) D)
        (field (name Value) BZX84Cxx)
        (field (name Footprint) Diode_SMD:D_SOT-23_ANK))
      (pins
        (pin (num 1) (name K) (type passive))
        (pin (num 2) (name A) (type passive))))
    (libpart (lib Jumper) (part Jumper_2_Open)
      (description "Jumper, 2-pole, open")
      (docs ~)
      (footprints
        (fp Jumper*)
        (fp TestPoint*2Pads*)
        (fp TestPoint*Bridge*))
      (fields
        (field (name Reference) JP)
        (field (name Value) Jumper_2_Open))
      (pins
        (pin (num 1) (name A) (type passive))
        (pin (num 2) (name B) (type passive))))
    (libpart (lib MCU_Microchip_ATtiny) (part ATtiny204-SS)
      (aliases
        (alias ATtiny404-SS)
        (alias ATtiny804-SS)
        (alias ATtiny1604-SS)
        (alias ATtiny214-SS)
        (alias ATtiny414-SS)
        (alias ATtiny814-SS)
        (alias ATtiny1614-SS))
      (description "20MHz, 2kB Flash, 128B SRAM, 64B EEPROM, SOIC-14")
      (docs http://ww1.microchip.com/downloads/en/DeviceDoc/50002687A.pdf)
      (footprints
        (fp SOIC*3.9x8.7mm*P1.27mm*))
      (fields
        (field (name Reference) U)
        (field (name Value) ATtiny204-SS)
        (field (name Footprint) Package_SO:SOIC-14_3.9x8.7mm_P1.27mm))
      (pins
        (pin (num 1) (name VCC) (type power_in))
        (pin (num 2) (name PA4) (type BiDi))
        (pin (num 3) (name PA5) (type BiDi))
        (pin (num 4) (name PA6) (type BiDi))
        (pin (num 5) (name PA7) (type BiDi))
        (pin (num 6) (name PB3) (type BiDi))
        (pin (num 7) (name PB2) (type BiDi))
        (pin (num 8) (name PB1) (type BiDi))
        (pin (num 9) (name PB0) (type BiDi))
        (pin (num 10) (name ~RESET~/PA0) (type BiDi))
        (pin (num 11) (name PA1) (type BiDi))
        (pin (num 12) (name PA2) (type BiDi))
        (pin (num 13) (name PA3) (type BiDi))
        (pin (num 14) (name GND) (type power_in))))
    (libpart (lib Mechanical) (part MountingHole_Pad)
      (description "Mounting Hole with connection")
      (docs ~)
      (footprints
        (fp MountingHole*Pad*))
      (fields
        (field (name Reference) H)
        (field (name Value) MountingHole_Pad))
      (pins
        (pin (num 1) (name 1) (type input))))
    (libpart (lib Motor) (part Fan_Tacho_PWM)
      (aliases
        (alias Fan_CPU_4pin)
        (alias Fan_4pin))
      (description "Fan, tacho output, PWM input, 4-pin connector")
      (docs http://www.formfactors.org/developer%5Cspecs%5Crev1_2_public.pdf)
      (footprints
        (fp FanPinHeader*P2.54mm*Vertical*)
        (fp PinHeader*P2.54mm*Vertical*)
        (fp TerminalBlock*))
      (fields
        (field (name Reference) M)
        (field (name Value) Fan_Tacho_PWM))
      (pins
        (pin (num 1) (name -) (type passive))
        (pin (num 2) (name +) (type passive))
        (pin (num 3) (name Tacho) (type passive))
        (pin (num 4) (name PWM) (type input))))
    (libpart (lib Tinyfan_Library) (part MP2456GJ)
      (docs https://www.mouser.com/datasheet/2/277/MP2456-1384253.pdf)
      (footprints
        (fp TSOT?23*))
      (fields
        (field (name Reference) IC)
        (field (name Value) MP2456GJ)
        (field (name Footprint) Package_TO_SOT_SMD:TSOT-23-6))
      (pins
        (pin (num 1) (name BST) (type passive))
        (pin (num 2) (name GND) (type power_in))
        (pin (num 3) (name FB) (type input))
        (pin (num 4) (name EN) (type input))
        (pin (num 5) (name IN) (type power_in))
        (pin (num 6) (name SW) (type power_out))))
    (libpart (lib Transistor_FET) (part TP0610T)
      (aliases
        (alias VP0610T)
        (alias BSS84)
        (alias NTR2101P)
        (alias BSS83P)
        (alias Si2319CDS)
        (alias IRLML6401)
        (alias IRLML6402)
        (alias DMG2301L)
        (alias AO3401A)
        (alias IRLML9301)
        (alias IRLML5203)
        (alias Si2371EDS)
        (alias TSM2301ACX)
        (alias FDN340P))
      (description "-0.18A Id, -60V Vds, P-Channel MOSFET, SOT-23")
      (docs http://www.vishay.com/docs/70209/70209.pdf)
      (footprints
        (fp SOT?23*))
      (fields
        (field (name Reference) Q)
        (field (name Value) TP0610T)
        (field (name Footprint) Package_TO_SOT_SMD:SOT-23))
      (pins
        (pin (num 1) (name G) (type input))
        (pin (num 2) (name S) (type passive))
        (pin (num 3) (name D) (type passive)))))
  (libraries
    (library (logical Connector)
      (uri D:\KiCad\share\kicad\library/Connector.lib))
    (library (logical Device)
      (uri D:\KiCad\share\kicad\library/Device.lib))
    (library (logical Diode)
      (uri D:\KiCad\share\kicad\library/Diode.lib))
    (library (logical Jumper)
      (uri D:\KiCad\share\kicad\library/Jumper.lib))
    (library (logical MCU_Microchip_ATtiny)
      (uri D:\KiCad\share\kicad\library/MCU_Microchip_ATtiny.lib))
    (library (logical Mechanical)
      (uri D:\KiCad\share\kicad\library/Mechanical.lib))
    (library (logical Motor)
      (uri D:\KiCad\share\kicad\library/Motor.lib))
    (library (logical Tinyfan_Library)
      (uri D:\Projects\tinyfan\kicad\tinyfan/Tinyfan_Library.lib))
    (library (logical Transistor_FET)
      (uri D:\KiCad\share\kicad\library/Transistor_FET.lib)))
  (nets
    (net (code 1) (name "Net-(C5-Pad1)")
      (node (ref R8) (pin 2))
      (node (ref U2) (pin 3))
      (node (ref C5) (pin 1))
      (node (ref R9) (pin 2)))
    (net (code 2) (name "Net-(C4-Pad2)")
      (node (ref U2) (pin 1))
      (node (ref C4) (pin 2))
      (node (ref D6) (pin 1)))
    (net (code 4) (name "Net-(R6-Pad2)")
      (node (ref U1) (pin 8))
      (node (ref R6) (pin 2)))
    (net (code 5) (name "Net-(R4-Pad1)")
      (node (ref R4) (pin 1))
      (node (ref U2) (pin 4)))
    (net (code 6) (name GND)
      (node (ref C1) (pin 2))
      (node (ref M1) (pin 1))
      (node (ref H2) (pin 1))
      (node (ref H1) (pin 1))
      (node (ref C3) (pin 2))
      (node (ref D1) (pin 1))
      (node (ref C2) (pin 1))
      (node (ref H3) (pin 1))
      (node (ref H4) (pin 1))
      (node (ref C6) (pin 1))
      (node (ref J4) (pin 2))
      (node (ref D4) (pin 2))
      (node (ref J1) (pin 3))
      (node (ref Q1) (pin 2))
      (node (ref U2) (pin 2))
      (node (ref R9) (pin 1))
      (node (ref U1) (pin 14))
      (node (ref J2) (pin 3))
      (node (ref J3) (pin 5))
      (node (ref D2) (pin 1)))
    (net (code 7) (name "Net-(R11-Pad1)")
      (node (ref R11) (pin 1))
      (node (ref U1) (pin 4)))
    (net (code 8) (name "Net-(Q1-Pad1)")
      (node (ref Q1) (pin 1))
      (node (ref R11) (pin 2)))
    (net (code 9) (name "Net-(M1-Pad4)")
      (node (ref R7) (pin 2))
      (node (ref M1) (pin 4)))
    (net (code 10) (name "Net-(R7-Pad1)")
      (node (ref R7) (pin 1))
      (node (ref U1) (pin 5)))
    (net (code 11) (name "Net-(D3-Pad1)")
      (node (ref D3) (pin 1))
      (node (ref R10) (pin 2)))
    (net (code 12) (name "Net-(R5-Pad2)")
      (node (ref R5) (pin 2))
      (node (ref U1) (pin 9)))
    (net (code 13) (name "Net-(R10-Pad1)")
      (node (ref U1) (pin 13))
      (node (ref R10) (pin 1)))
    (net (code 14) (name "Net-(R2-Pad1)")
      (node (ref R2) (pin 1))
      (node (ref U1) (pin 11)))
    (net (code 15) (name "Net-(D3-Pad2)")
      (node (ref R2) (pin 2))
      (node (ref D3) (pin 2)))
    (net (code 16) (name +5V)
      (node (ref U1) (pin 1))
      (node (ref R3) (pin 2))
      (node (ref R1) (pin 2))
      (node (ref D6) (pin 2))
      (node (ref R8) (pin 1))
      (node (ref C5) (pin 2))
      (node (ref L1) (pin 2))
      (node (ref D7) (pin 2))
      (node (ref J3) (pin 1))
      (node (ref C6) (pin 2)))
    (net (code 17) (name "Net-(U1-Pad3)")
      (node (ref U1) (pin 3)))
    (net (code 18) (name "Net-(U1-Pad2)")
      (node (ref U1) (pin 2)))
    (net (code 19) (name VDC)
      (node (ref U2) (pin 5))
      (node (ref JP1) (pin 1))
      (node (ref J4) (pin 1))
      (node (ref C3) (pin 1))
      (node (ref C2) (pin 2))
      (node (ref R4) (pin 2)))
    (net (code 20) (name "Net-(C4-Pad1)")
      (node (ref U2) (pin 6))
      (node (ref L1) (pin 1))
      (node (ref C4) (pin 1))
      (node (ref D4) (pin 1)))
    (net (code 21) (name "Net-(Q1-Pad3)")
      (node (ref Q1) (pin 3))
      (node (ref R13) (pin 1)))
    (net (code 22) (name "Net-(C1-Pad1)")
      (node (ref J2) (pin 1))
      (node (ref J1) (pin 1))
      (node (ref C1) (pin 1))
      (node (ref R1) (pin 1)))
    (net (code 23) (name "Net-(D5-Pad1)")
      (node (ref Q2) (pin 2))
      (node (ref JP1) (pin 2))
      (node (ref D5) (pin 1))
      (node (ref R12) (pin 2))
      (node (ref D7) (pin 1)))
    (net (code 24) (name "Net-(M1-Pad3)")
      (node (ref M1) (pin 3)))
    (net (code 25) (name "Net-(M1-Pad2)")
      (node (ref Q2) (pin 3))
      (node (ref M1) (pin 2)))
    (net (code 26) (name "Net-(D5-Pad2)")
      (node (ref D5) (pin 2))
      (node (ref Q2) (pin 1))
      (node (ref R13) (pin 2))
      (node (ref R12) (pin 1)))
    (net (code 27) (name "Net-(D3-Pad3)")
      (node (ref D3) (pin 3))
      (node (ref U1) (pin 12))
      (node (ref R3) (pin 1))
      (node (ref J1) (pin 2))
      (node (ref J2) (pin 2)))
    (net (code 28) (name "Net-(D1-Pad2)")
      (node (ref R5) (pin 1))
      (node (ref D1) (pin 2)))
    (net (code 29) (name "Net-(D2-Pad2)")
      (node (ref R6) (pin 1))
      (node (ref D2) (pin 2)))
    (net (code 30) (name /RX)
      (node (ref J3) (pin 4))
      (node (ref U1) (pin 7)))
    (net (code 31) (name /TX)
      (node (ref J3) (pin 3))
      (node (ref U1) (pin 6)))
    (net (code 32) (name /UPDI)
      (node (ref J3) (pin 2))
      (node (ref U1) (pin 10)))))